<svg width="122" height="94" viewBox="0 0 122 94" fill="none" xmlns="http://www.w3.org/2000/svg">
<g clip-path="url(#clip0_433_9739)">
<path d="M111.017 93.9999H10.9833C4.92314 93.9999 0 89.0426 0 82.9549V24.28C0 18.1923 4.92314 13.2468 10.9833 13.2468H111.017C117.077 13.2468 122 18.1923 122 24.28V82.9549C122 89.0426 117.065 93.9999 111.017 93.9999ZM10.9833 17.3681C7.18543 17.3681 4.10261 20.4649 4.10261 24.28V82.9549C4.10261 86.7701 7.18543 89.8669 10.9833 89.8669H111.017C114.815 89.8669 117.897 86.7701 117.897 82.9549V24.28C117.897 20.4649 114.815 17.3681 111.017 17.3681H10.9833Z" fill="white"/>
<path d="M112.975 41.8248H90.8326C89.6955 41.8248 88.7812 40.9063 88.7812 39.7642V24.1976C88.7812 23.0554 89.6955 22.137 90.8326 22.137H112.975C114.112 22.137 115.026 23.0554 115.026 24.1976V39.7642C115.026 40.9063 114.1 41.8248 112.975 41.8248ZM92.8839 37.7035H110.924V26.2582H92.8839V37.7035Z" fill="white"/>
<path d="M60.9994 86.8172C45.3743 86.8172 32.668 74.0531 32.668 58.357C32.668 42.6609 45.3743 29.8967 60.9994 29.8967C76.6245 29.8967 89.3309 42.6609 89.3309 58.357C89.3192 74.0531 76.6128 86.8172 60.9994 86.8172ZM60.9994 34.0298C47.6366 34.0298 36.7706 44.9452 36.7706 58.3687C36.7706 71.7923 47.6366 82.7077 60.9994 82.7077C74.3622 82.7077 85.2283 71.7923 85.2283 58.3687C85.2283 44.9452 74.3505 34.0298 60.9994 34.0298Z" fill="white"/>
<path d="M60.9996 79.9642C49.149 79.9642 39.502 70.2734 39.502 58.3688C39.502 46.4643 49.149 36.7734 60.9996 36.7734C72.8503 36.7734 82.4973 46.4643 82.4973 58.3688C82.4973 70.2734 72.8503 79.9642 60.9996 79.9642ZM60.9996 40.8829C51.4113 40.8829 43.6046 48.7251 43.6046 58.3571C43.6046 67.989 51.4113 75.8312 60.9996 75.8312C70.588 75.8312 78.3947 67.989 78.3947 58.3571C78.3947 48.7251 70.588 40.8829 60.9996 40.8829Z" fill="white"/>
<path d="M31.8715 17.3682H17.1138C15.9768 17.3682 15.0625 16.4497 15.0625 15.3075V2.06063C15.0625 0.918452 15.9768 0 17.1138 0H31.8832C33.0202 0 33.9345 0.918452 33.9345 2.06063V15.3075C33.9228 16.4497 33.0085 17.3682 31.8715 17.3682ZM19.1651 13.2469H29.8319V4.12126H19.1651V13.2469Z" fill="white"/>
<path d="M83.7408 17.3682H83.7291H38.741C38.0026 17.3682 37.311 16.9678 36.9476 16.3202C36.5842 15.6726 36.596 14.8719 36.9828 14.236L45.0473 0.989102C45.4342 0.376801 46.0906 0 46.8056 0H76.192C76.9305 0 77.6104 0.400351 77.9737 1.0362L85.3702 14.0829C85.6281 14.4244 85.7687 14.8483 85.7687 15.3075C85.7804 16.4497 84.8661 17.3682 83.7408 17.3682ZM42.3982 13.2469H80.1892L75.0081 4.12126H47.9543L42.3982 13.2469Z" fill="white"/>
</g>
<defs>
<clipPath id="clip0_433_9739">
<rect width="122" height="94" fill="white"/>
</clipPath>
</defs>
</svg>
