<svg width="24" height="24" viewBox="0 0 24 24" fill="none" xmlns="http://www.w3.org/2000/svg">
<path d="M22 11.75C22 12.718 21.3125 13.5 20.4615 13.5H3.53846C2.6875 13.5 2 12.718 2 11.75C2 10.782 2.6875 10 3.53846 10H20.4615C21.3125 10 22 10.782 22 11.75Z" fill="#ED1F30"/>
</svg>
